{"name":"CP03 - Eliminar un usuario del sistema","id":"consultar-usuario-por-id;cp03---eliminar-un-usuario-del-sistema","testSteps":[{"number":1,"description":"Dado que el analista de calidad desea eliminar el usuario 7","duration":2,"startTime":"2024-05-19T11:48:03.094798800-05:00[America/Bogota]","result":"SUCCESS","precondition":false,"level":0},{"number":2,"description":"Cuando el analista de calidad consume el servicio para eliminar al usuario del sistema","duration":525,"startTime":"2024-05-19T11:48:03.098799300-05:00[America/Bogota]","result":"SUCCESS","precondition":false,"level":0,"children":[{"number":3,"description":"Analista de calidad realiza el consumo del servicio getUsers: 7","duration":511,"startTime":"2024-05-19T11:48:03.108800800-05:00[America/Bogota]","result":"SUCCESS","precondition":false,"level":1,"children":[{"number":4,"description":"Analista de calidad executes a DELETE on the resource 7","duration":489,"startTime":"2024-05-19T11:48:03.126797200-05:00[America/Bogota]","result":"SUCCESS","precondition":false,"level":2,"children":[{"number":5,"description":"DELETE https://reqres.in/api/users/7","duration":0,"startTime":"2024-05-19T11:48:03.615843400-05:00[America/Bogota]","result":"SUCCESS","restQuery":{"method":"DELETE","path":"https://reqres.in/api/users/7","content":"","contentType":"application/json","requestHeaders":"Accept\u003d*/*\r\n\t\t\t\tContent-Type\u003dapplication/json","requestCookies":"","responseHeaders":"Date: Sun, 19 May 2024 16:47:01 GMT\r\nContent-Length: 0\r\nConnection: keep-alive\r\nReport-To: {\"group\":\"heroku-nel\",\"max_age\":3600,\"endpoints\":[{\"url\":\"https://nel.heroku.com/reports?ts\u003d1716137221\u0026sid\u003dc4c9725f-1ab0-44d8-820f-430df2718e11\u0026s\u003dJlrmT0zlFKqoCXggLcWnTOak0YNGsHlcxMNMeQnXhVM%3D\"}]}\r\nReporting-Endpoints: heroku-nel\u003dhttps://nel.heroku.com/reports?ts\u003d1716137221\u0026sid\u003dc4c9725f-1ab0-44d8-820f-430df2718e11\u0026s\u003dJlrmT0zlFKqoCXggLcWnTOak0YNGsHlcxMNMeQnXhVM%3D\r\nNel: {\"report_to\":\"heroku-nel\",\"max_age\":3600,\"success_fraction\":0.005,\"failure_fraction\":0.05,\"response_headers\":[\"Via\"]}\r\nX-Powered-By: Express\r\nAccess-Control-Allow-Origin: *\r\nEtag: W/\"2-vyGp6PvFo4RvsFtPoIWeCReyIC8\"\r\nVia: 1.1 vegur\r\nCF-Cache-Status: DYNAMIC\r\nServer: cloudflare\r\nCF-RAY: 886590ff88cfda93-MIA\r","responseCookies":"\r","statusCode":204},"precondition":false,"level":3}]}]}]},{"number":6,"description":"Entonces el analista de calidad podrá visualizar el codigo de respuesta 204","duration":25,"startTime":"2024-05-19T11:48:03.624098900-05:00[America/Bogota]","result":"SUCCESS","precondition":false,"level":0,"children":[{"number":7,"description":"For Analista de calidad: Then El codigo de respuesta entregado por la API es el correcto","duration":13,"startTime":"2024-05-19T11:48:03.629097900-05:00[America/Bogota]","result":"SUCCESS","precondition":false,"level":1,"children":[{"number":8,"description":"For Analista de calidad: El codigo recibido es 204","duration":4,"startTime":"2024-05-19T11:48:03.635095900-05:00[America/Bogota]","result":"SUCCESS","precondition":false,"level":2}]}]},{"number":9,"description":"Y el analista de calidad debera validar que el usuario no exista en la lista de usuarios","duration":885,"startTime":"2024-05-19T11:48:03.650115600-05:00[America/Bogota]","result":"SUCCESS","precondition":false,"level":0,"children":[{"number":10,"description":"For Analista de calidad: Then el usuario fue correctamente eliminado:  should be (null or an empty string)","duration":872,"startTime":"2024-05-19T11:48:03.657117100-05:00[America/Bogota]","result":"SUCCESS","precondition":false,"level":1,"children":[{"number":11,"description":"Analista de calidad realiza el consumo del servicio getUsers: ","duration":271,"startTime":"2024-05-19T11:48:03.667115800-05:00[America/Bogota]","result":"SUCCESS","precondition":false,"level":2,"children":[{"number":12,"description":"Analista de calidad executes a GET on the resource ","duration":258,"startTime":"2024-05-19T11:48:03.676115600-05:00[America/Bogota]","result":"SUCCESS","precondition":false,"level":3,"children":[{"number":13,"description":"GET https://reqres.in/api/users/","duration":0,"startTime":"2024-05-19T11:48:03.934648100-05:00[America/Bogota]","result":"SUCCESS","restQuery":{"method":"GET","path":"https://reqres.in/api/users/","content":"","contentType":"application/json","requestHeaders":"Accept\u003d*/*\r\n\t\t\t\tContent-Type\u003dapplication/json","requestCookies":"","responseHeaders":"Date: Sun, 19 May 2024 16:47:01 GMT\r\nContent-Type: application/json; charset\u003dutf-8\r\nTransfer-Encoding: chunked\r\nConnection: keep-alive\r\nReport-To: {\"group\":\"heroku-nel\",\"max_age\":3600,\"endpoints\":[{\"url\":\"https://nel.heroku.com/reports?ts\u003d1716068185\u0026sid\u003dc4c9725f-1ab0-44d8-820f-430df2718e11\u0026s\u003depLAMBWfuGueS8LUXALTdNs1b4hQoQDwwQ49J3JhbpQ%3D\"}]}\r\nReporting-Endpoints: heroku-nel\u003dhttps://nel.heroku.com/reports?ts\u003d1716068185\u0026sid\u003dc4c9725f-1ab0-44d8-820f-430df2718e11\u0026s\u003depLAMBWfuGueS8LUXALTdNs1b4hQoQDwwQ49J3JhbpQ%3D\r\nNel: {\"report_to\":\"heroku-nel\",\"max_age\":3600,\"success_fraction\":0.005,\"failure_fraction\":0.05,\"response_headers\":[\"Via\"]}\r\nX-Powered-By: Express\r\nAccess-Control-Allow-Origin: *\r\nEtag: W/\"3e4-2RLXvr5wTg9YQ6aH95CkYoFNuO8\"\r\nVia: 1.1 vegur\r\nCache-Control: max-age\u003d14400\r\nCF-Cache-Status: HIT\r\nAge: 3275\r\nVary: Accept-Encoding\r\nServer: cloudflare\r\nCF-RAY: 886591030c647477-MIA\r\nContent-Encoding: gzip\r","responseCookies":"\r","responseBody":"{\n    \"page\": 1,\n    \"per_page\": 6,\n    \"total\": 12,\n    \"total_pages\": 2,\n    \"data\": [\n        {\n            \"id\": 1,\n            \"email\": \"george.bluth@reqres.in\",\n            \"first_name\": \"George\",\n            \"last_name\": \"Bluth\",\n            \"avatar\": \"https://reqres.in/img/faces/1-image.jpg\"\n        },\n        {\n            \"id\": 2,\n            \"email\": \"janet.weaver@reqres.in\",\n            \"first_name\": \"Janet\",\n            \"last_name\": \"Weaver\",\n            \"avatar\": \"https://reqres.in/img/faces/2-image.jpg\"\n        },\n        {\n            \"id\": 3,\n            \"email\": \"emma.wong@reqres.in\",\n            \"first_name\": \"Emma\",\n            \"last_name\": \"Wong\",\n            \"avatar\": \"https://reqres.in/img/faces/3-image.jpg\"\n        },\n        {\n            \"id\": 4,\n            \"email\": \"eve.holt@reqres.in\",\n            \"first_name\": \"Eve\",\n            \"last_name\": \"Holt\",\n            \"avatar\": \"https://reqres.in/img/faces/4-image.jpg\"\n        },\n        {\n            \"id\": 5,\n            \"email\": \"charles.morris@reqres.in\",\n            \"first_name\": \"Charles\",\n            \"last_name\": \"Morris\",\n            \"avatar\": \"https://reqres.in/img/faces/5-image.jpg\"\n        },\n        {\n            \"id\": 6,\n            \"email\": \"tracey.ramos@reqres.in\",\n            \"first_name\": \"Tracey\",\n            \"last_name\": \"Ramos\",\n            \"avatar\": \"https://reqres.in/img/faces/6-image.jpg\"\n        }\n    ],\n    \"support\": {\n        \"url\": \"https://reqres.in/#support-heading\",\n        \"text\": \"To keep ReqRes free, contributions towards server costs are appreciated!\"\n    }\n}","statusCode":200},"precondition":false,"level":4}]}]}]}]}],"userStory":{"id":"consultar-usuario-por-id","storyName":"consultar usuario por id","displayName":"consultar usuario por id","path":"ejercicio1.feature","narrative":"  Yo como analista de calidad\n  Deseo realizar una consulta al servicio get_users_id\n  Para obtener un usuario por id","type":"feature","qualifiedTag":{"name":"consultar usuario por id","type":"feature","displayName":"consultar usuario por id"}},"featureTag":{"name":"consultar usuario por id","type":"feature","displayName":"consultar usuario por id"},"title":"CP03 - Eliminar un usuario del sistema","description":"","tags":[{"name":"consultar usuario por id","type":"feature","displayName":"consultar usuario por id"}],"allTags":[{"name":"consultar usuario por id","type":"feature","displayName":"consultar usuario por id"}],"startTime":"2024-05-19T11:48:03.089796800-05:00[America/Bogota]","duration":1446,"projectKey":"","isManualTestingUpToDate":false,"context":"windows","manual":false,"testSource":"Cucumber","actors":[{"name":"Analista de calidad","can":["browse the web","call an API at https://reqres.in/api/users/"]}],"result":"SUCCESS"}